image,category
arten-512/Ophrys apifera/5bf6ab57b5e5ecce.jpg,Ophrys apifera
arten-512/Ophrys apifera/1cdeffc0c2287ce9.jpg,Ophrys apifera
arten-512/Ophrys apifera/f644543ba4c76a3d.jpg,Ophrys apifera
arten-512/Ophrys apifera/49cc88c6d5d3e4df.jpg,Ophrys apifera
arten-512/Ophrys apifera/53de65fbda23d40c.jpg,Ophrys apifera
arten-512/Ophrys apifera/935130ceaf58e36d.jpg,Ophrys apifera
arten-512/Ophrys apifera/1d8c3adfc7ab4bba.jpg,Ophrys apifera
arten-512/Ophrys apifera/adf6caa604ec7f70.jpg,Ophrys apifera
arten-512/Ophrys apifera/b64e4146c5a4a41f.jpg,Ophrys apifera
arten-512/Ophrys apifera/5390352aa1b67275.jpg,Ophrys apifera
arten-512/Ophrys apifera/09447b61b627c838.jpg,Ophrys apifera
arten-512/Ophrys apifera/2ce1e43c50023d41.jpg,Ophrys apifera
arten-512/Ophrys apifera/8bddbfc15a41a8ce.jpg,Ophrys apifera
arten-512/Ophrys apifera/2bd04cd0f722e35b.jpg,Ophrys apifera
arten-512/Ophrys apifera/2374c99004de0de0.jpg,Ophrys apifera
arten-512/Ophrys apifera/e2ae1d9bb7620c33.jpg,Ophrys apifera
arten-512/Ophrys apifera/605ad7f55239bf57.jpg,Ophrys apifera
arten-512/Ophrys apifera/7a7449e6c0999aae.jpg,Ophrys apifera
arten-512/Ophrys apifera/6b0a718f1c263979.jpg,Ophrys apifera
arten-512/Ophrys apifera/9c05e7951d3e2886.jpg,Ophrys apifera
arten-512/Ophrys apifera/f0cb4e446ffbdd8c.jpg,Ophrys apifera
arten-512/Ophrys apifera/3fda3a9234fb0815.jpg,Ophrys apifera
arten-512/Ophrys apifera/ec597907ce2a3afc.jpg,Ophrys apifera
arten-512/Ophrys apifera/b9df40c3619b8e7b.jpg,Ophrys apifera
arten-512/Ophrys apifera/28066aec1fbe0a45.jpg,Ophrys apifera
arten-512/Ophrys apifera/208d7a2cc0c34b71.jpg,Ophrys apifera
arten-512/Ophrys apifera/2bc048cb7e608eb4.jpg,Ophrys apifera
arten-512/Ophrys apifera/255788f58f2ac71f.jpg,Ophrys apifera
arten-512/Ophrys apifera/28f544018f1102f4.jpg,Ophrys apifera
arten-512/Ophrys apifera/2210376b868da07a.jpg,Ophrys apifera
arten-512/Ophrys apifera/2791db3e20f62212.jpg,Ophrys apifera
arten-512/Ophrys apifera/aa849b79d73a8f84.jpg,Ophrys apifera
arten-512/Ophrys apifera/1832ab7dbaf8b131.jpg,Ophrys apifera
arten-512/Ophrys apifera/2f6699b3e7b75ada.jpg,Ophrys apifera
arten-512/Ophrys apifera/521fa63931a0c5ea.jpg,Ophrys apifera
arten-512/Ophrys apifera/112dee8c1387a51e.jpg,Ophrys apifera
arten-512/Ophrys apifera/c4ac996893b04be8.jpg,Ophrys apifera
arten-512/Ophrys apifera/3772831afea476b8.jpg,Ophrys apifera
arten-512/Ophrys apifera/7bb108abdbb510b9.jpg,Ophrys apifera
arten-512/Ophrys apifera/4b12721737eeddd7.jpg,Ophrys apifera
arten-512/Ophrys apifera/805027a855305a8d.jpg,Ophrys apifera
arten-512/Ophrys apifera/d211a0b5f3e8f14f.jpg,Ophrys apifera
arten-512/Ophrys apifera/6404ff3db43cf113.jpg,Ophrys apifera
arten-512/Ophrys apifera/885af197ece2fc13.jpg,Ophrys apifera
arten-512/Ophrys apifera/5ece8e4590c0a99b.jpg,Ophrys apifera
arten-512/Ophrys apifera/27d2449ca684d1f8.jpg,Ophrys apifera
arten-512/Ophrys apifera/56a4323248af1a8f.jpg,Ophrys apifera
arten-512/Ophrys apifera/592438ff355ae7ea.jpg,Ophrys apifera
arten-512/Ophrys apifera/0b9569ba1f2372b0.jpg,Ophrys apifera
arten-512/Ophrys apifera/0c85fc7e2f0f1536.jpg,Ophrys apifera
arten-512/Ophrys dinarica/43b9bef32b5d193a.jpg,Ophrys dinarica
arten-512/Ophrys dinarica/7f9f713c116184ac.jpg,Ophrys dinarica
arten-512/Ophrys dinarica/557d1e2867d3cfa6.jpg,Ophrys dinarica
arten-512/Ophrys dinarica/8b32e9f5529792e5.jpg,Ophrys dinarica
arten-512/Ophrys dinarica/2cf89332ffc88653.jpg,Ophrys dinarica
arten-512/Ophrys dinarica/532fa709750eb050.jpg,Ophrys dinarica
arten-512/Ophrys dinarica/c2dad47a4772b5b4.jpg,Ophrys dinarica
arten-512/Ophrys dinarica/8dd0076eaf376a80.jpg,Ophrys dinarica
arten-512/Ophrys dinarica/9588d0115f44884e.jpg,Ophrys dinarica
arten-512/Ophrys dinarica/bfd32eddd77b06ab.jpg,Ophrys dinarica
arten-512/Ophrys dinarica/ff17b91d55350829.jpg,Ophrys dinarica
arten-512/Ophrys dinarica/859c2d94ce7ef699.jpg,Ophrys dinarica
arten-512/Ophrys dinarica/4b9cf8c3c30a220b.jpg,Ophrys dinarica
arten-512/Ophrys dinarica/9cc0cd0515f48e1b.jpg,Ophrys dinarica
arten-512/Ophrys dinarica/31d43ea152f6c518.jpg,Ophrys dinarica
arten-512/Ophrys dinarica/0184620cc1d64b1d.jpg,Ophrys dinarica
arten-512/Ophrys dinarica/608b5f88a56a8c5b.jpg,Ophrys dinarica
arten-512/Ophrys dinarica/d849e7e1f502cab8.jpg,Ophrys dinarica
arten-512/Ophrys dinarica/2444be94714a1698.jpg,Ophrys dinarica
arten-512/Ophrys dinarica/c81ec75c60f7d95a.jpg,Ophrys dinarica
arten-512/Ophrys dinarica/13d002f3ec871161.jpg,Ophrys dinarica
arten-512/Ophrys dinarica/5c57119c26ce4b22.jpg,Ophrys dinarica
arten-512/Ophrys dinarica/c976f8482e34a739.jpg,Ophrys dinarica
arten-512/Ophrys dinarica/48bc929f6eca5ecf.jpg,Ophrys dinarica
arten-512/Ophrys dinarica/ae454ca25e9773a3.jpg,Ophrys dinarica
arten-512/Ophrys dinarica/5989e3e054f67b76.jpg,Ophrys dinarica
arten-512/Ophrys dinarica/44b165b202a0c592.jpg,Ophrys dinarica
arten-512/Ophrys dinarica/658f54d6e0ff66d8.jpg,Ophrys dinarica
arten-512/Ophrys dinarica/9b711b253f3041ae.jpg,Ophrys dinarica
arten-512/Ophrys dinarica/8cfc71d8a5f0eb08.jpg,Ophrys dinarica
arten-512/Ophrys dinarica/aa7a60ec98976d47.jpg,Ophrys dinarica
arten-512/Ophrys dinarica/5bedb379275287b4.jpg,Ophrys dinarica
arten-512/Ophrys dinarica/641b0e5250e7ea01.jpg,Ophrys dinarica
arten-512/Ophrys dinarica/9d41cf631f36f64e.jpg,Ophrys dinarica
arten-512/Ophrys dinarica/65523861eec8607f.jpg,Ophrys dinarica
arten-512/Ophrys dinarica/1c336896da50ecdf.jpg,Ophrys dinarica
arten-512/Ophrys dinarica/3fe45833d399c8b9.jpg,Ophrys dinarica
arten-512/Ophrys dinarica/be88f737d2f9b914.jpg,Ophrys dinarica
arten-512/Ophrys dinarica/7eaeb84bdaf886cc.jpg,Ophrys dinarica
arten-512/Ophrys dinarica/d8832abc8ec82574.jpg,Ophrys dinarica
arten-512/Ophrys dinarica/2704db366aa2d92f.jpg,Ophrys dinarica
arten-512/Ophrys dinarica/be39a096a9820d40.jpg,Ophrys dinarica
arten-512/Ophrys dinarica/b6ab32acdba7833b.jpg,Ophrys dinarica
arten-512/Ophrys dinarica/dfafc0b8c218ec2f.jpg,Ophrys dinarica
arten-512/Ophrys dinarica/a02f68097ee059af.jpg,Ophrys dinarica
arten-512/Ophrys dinarica/614c28bbe57ff5b5.jpg,Ophrys dinarica
arten-512/Ophrys dinarica/153549138f81e2b1.jpg,Ophrys dinarica
arten-512/Ophrys dinarica/9bfd3b0f17e24841.jpg,Ophrys dinarica
arten-512/Ophrys dinarica/09c3009304e2ebac.jpg,Ophrys dinarica
arten-512/Ophrys dinarica/88210c0f72c14b07.jpg,Ophrys dinarica
arten-512/Ophrys exaltata/fe4bbd8d43cb8228.jpg,Ophrys exaltata
arten-512/Ophrys exaltata/6d929ef90d394c9e.jpg,Ophrys exaltata
arten-512/Ophrys exaltata/accbdab794d510f3.jpg,Ophrys exaltata
arten-512/Ophrys exaltata/76424179debc5eac.jpg,Ophrys exaltata
arten-512/Ophrys exaltata/2358f7baf64f6bea.jpg,Ophrys exaltata
arten-512/Ophrys exaltata/c293191052c1c124.jpg,Ophrys exaltata
arten-512/Ophrys exaltata/ea891aea3fe680e3.jpg,Ophrys exaltata
arten-512/Ophrys exaltata/d7a4aedf8c3cf27f.jpg,Ophrys exaltata
arten-512/Ophrys exaltata/22858318ba7571b2.jpg,Ophrys exaltata
arten-512/Ophrys exaltata/a35071cd7592738f.jpg,Ophrys exaltata
arten-512/Ophrys exaltata/a71cf18011ef4cd4.jpg,Ophrys exaltata
arten-512/Ophrys exaltata/064962e9a8e6638e.jpg,Ophrys exaltata
arten-512/Ophrys exaltata/2e4f1ea9f5efe688.jpg,Ophrys exaltata
arten-512/Ophrys exaltata/5a58afdaf1555981.jpg,Ophrys exaltata
arten-512/Ophrys exaltata/8acac2a533251d2c.jpg,Ophrys exaltata
arten-512/Ophrys exaltata/12871eb5edec7fbb.jpg,Ophrys exaltata
arten-512/Ophrys exaltata/929ad645c2c3b5b4.jpg,Ophrys exaltata
arten-512/Ophrys exaltata/c34386001c07ab9a.jpg,Ophrys exaltata
arten-512/Ophrys exaltata/c3f1b4fcb094f004.jpg,Ophrys exaltata
arten-512/Ophrys exaltata/73a35e96ae81c893.jpg,Ophrys exaltata
arten-512/Ophrys exaltata/4e8ee04984c13869.jpg,Ophrys exaltata
arten-512/Ophrys exaltata/81cd8b0997684197.jpg,Ophrys exaltata
arten-512/Ophrys exaltata/9554f37719d74063.jpg,Ophrys exaltata
arten-512/Ophrys exaltata/f6c583b066db0af8.jpg,Ophrys exaltata
arten-512/Ophrys exaltata/e1993b4f1c602be0.jpg,Ophrys exaltata
arten-512/Ophrys exaltata/50fa95d9035403f6.jpg,Ophrys exaltata
arten-512/Ophrys exaltata/4c840e200155b29e.jpg,Ophrys exaltata
arten-512/Ophrys exaltata/4190d1d2d485a508.jpg,Ophrys exaltata
arten-512/Ophrys exaltata/f0c6b3d516270eb9.jpg,Ophrys exaltata
arten-512/Ophrys exaltata/d8dca31faaef562a.jpg,Ophrys exaltata
arten-512/Ophrys exaltata/5f74de571951eb3b.jpg,Ophrys exaltata
arten-512/Ophrys exaltata/12c621e531ac718b.jpg,Ophrys exaltata
arten-512/Ophrys exaltata/902aaf2b1ccaa90c.jpg,Ophrys exaltata
arten-512/Ophrys exaltata/533a944313b02d7c.jpg,Ophrys exaltata
arten-512/Ophrys exaltata/5c4054379be1af5a.jpg,Ophrys exaltata
arten-512/Ophrys exaltata/1fd38d9bb4de839a.jpg,Ophrys exaltata
arten-512/Ophrys exaltata/1e117e628ce7fc34.jpg,Ophrys exaltata
arten-512/Ophrys exaltata/38ffb9a2f9be7c8e.jpg,Ophrys exaltata
arten-512/Ophrys exaltata/20d896b38e71d1a9.jpg,Ophrys exaltata
arten-512/Ophrys exaltata/cf35b5d48fa911c8.jpg,Ophrys exaltata
arten-512/Ophrys exaltata/dee651763f62e13c.jpg,Ophrys exaltata
arten-512/Ophrys exaltata/5582083886b55dbe.jpg,Ophrys exaltata
arten-512/Ophrys exaltata/faeaea12acd52714.jpg,Ophrys exaltata
arten-512/Ophrys exaltata/b82e3e663b66e0a1.jpg,Ophrys exaltata
arten-512/Ophrys exaltata/16d6aaa423fcd1d4.jpg,Ophrys exaltata
arten-512/Ophrys exaltata/0d55573b0c94cd73.jpg,Ophrys exaltata
arten-512/Ophrys exaltata/934b9cb061410cbd.jpg,Ophrys exaltata
arten-512/Ophrys exaltata/14b86e401e0c42df.jpg,Ophrys exaltata
arten-512/Ophrys exaltata/9fa4653b31a1f05d.jpg,Ophrys exaltata
arten-512/Ophrys exaltata/54743b40dbb0b470.jpg,Ophrys exaltata
arten-512/Ophrys fusca s.l./3386b4964a9fcb52.jpg,Ophrys fusca s.l.
arten-512/Ophrys fusca s.l./9c5af2659b216afc.jpg,Ophrys fusca s.l.
arten-512/Ophrys fusca s.l./9e1ddcd3119d0abf.jpg,Ophrys fusca s.l.
arten-512/Ophrys fusca s.l./8ec592374691558f.jpg,Ophrys fusca s.l.
arten-512/Ophrys fusca s.l./26663b28549ec9a0.jpg,Ophrys fusca s.l.
arten-512/Ophrys fusca s.l./6254d652b6daebd7.jpg,Ophrys fusca s.l.
arten-512/Ophrys fusca s.l./dd24cfb21b0c48f5.jpg,Ophrys fusca s.l.
arten-512/Ophrys fusca s.l./97e45542cc3af188.jpg,Ophrys fusca s.l.
arten-512/Ophrys fusca s.l./47e5938f53b18227.jpg,Ophrys fusca s.l.
arten-512/Ophrys fusca s.l./7a6ada2fd7bf380e.jpg,Ophrys fusca s.l.
arten-512/Ophrys fusca s.l./a8f29d0bafcec58d.jpg,Ophrys fusca s.l.
arten-512/Ophrys fusca s.l./8dd8952b8b4f9832.jpg,Ophrys fusca s.l.
arten-512/Ophrys fusca s.l./954836d3d8f6c1ff.jpg,Ophrys fusca s.l.
arten-512/Ophrys fusca s.l./b530052cdc73959a.jpg,Ophrys fusca s.l.
arten-512/Ophrys fusca s.l./8caa8e6721eefdfa.jpg,Ophrys fusca s.l.
arten-512/Ophrys fusca s.l./c7d2c937e18719b4.jpg,Ophrys fusca s.l.
arten-512/Ophrys fusca s.l./239e9b17a290a8f7.jpg,Ophrys fusca s.l.
arten-512/Ophrys fusca s.l./27272443bcd736b9.jpg,Ophrys fusca s.l.
arten-512/Ophrys fusca s.l./fc248af6faf8d15f.jpg,Ophrys fusca s.l.
arten-512/Ophrys fusca s.l./c59c1eabbaa87cef.jpg,Ophrys fusca s.l.
arten-512/Ophrys fusca s.l./5a68bd9196b79383.jpg,Ophrys fusca s.l.
arten-512/Ophrys fusca s.l./28efcf2c92b24304.jpg,Ophrys fusca s.l.
arten-512/Ophrys fusca s.l./beaa4d1e704e89c5.jpg,Ophrys fusca s.l.
arten-512/Ophrys fusca s.l./d7a7fe88e4af9897.jpg,Ophrys fusca s.l.
arten-512/Ophrys fusca s.l./a4a46d8361e0c709.jpg,Ophrys fusca s.l.
arten-512/Ophrys fusca s.l./6d99549b29c326b5.jpg,Ophrys fusca s.l.
arten-512/Ophrys fusca s.l./fa36b933b70b09ac.jpg,Ophrys fusca s.l.
arten-512/Ophrys fusca s.l./d276759b74a33072.jpg,Ophrys fusca s.l.
arten-512/Ophrys fusca s.l./bd0ad94fb5a98531.jpg,Ophrys fusca s.l.
arten-512/Ophrys fusca s.l./09cc1bf3db0d77c0.jpg,Ophrys fusca s.l.
arten-512/Ophrys fusca s.l./f0ac34c69c357fa2.jpg,Ophrys fusca s.l.
arten-512/Ophrys fusca s.l./b8613a064257e8f3.jpg,Ophrys fusca s.l.
arten-512/Ophrys fusca s.l./892cb6c517725fb9.jpg,Ophrys fusca s.l.
arten-512/Ophrys fusca s.l./328fb6470a896db2.jpg,Ophrys fusca s.l.
arten-512/Ophrys fusca s.l./164568ad335c7050.jpg,Ophrys fusca s.l.
arten-512/Ophrys fusca s.l./08e595c6fe0a4941.jpg,Ophrys fusca s.l.
arten-512/Ophrys fusca s.l./c1dc77f6d9697999.jpg,Ophrys fusca s.l.
arten-512/Ophrys fusca s.l./d3a40277415756cf.jpg,Ophrys fusca s.l.
arten-512/Ophrys fusca s.l./efb28b21835a6bc5.jpg,Ophrys fusca s.l.
arten-512/Ophrys fusca s.l./2c826c8ac6d3fbef.jpg,Ophrys fusca s.l.
arten-512/Ophrys fusca s.l./178ba083c613dbf5.jpg,Ophrys fusca s.l.
arten-512/Ophrys fusca s.l./fd14ae8e45bc4e1b.jpg,Ophrys fusca s.l.
arten-512/Ophrys fusca s.l./db0f80dddb669d19.jpg,Ophrys fusca s.l.
arten-512/Ophrys fusca s.l./3c19bd82de35b59f.jpg,Ophrys fusca s.l.
arten-512/Ophrys fusca s.l./4190aebb64a44821.jpg,Ophrys fusca s.l.
arten-512/Ophrys fusca s.l./6964f2df74ecb467.jpg,Ophrys fusca s.l.
arten-512/Ophrys fusca s.l./6d0d41b2eeba008f.jpg,Ophrys fusca s.l.
arten-512/Ophrys fusca s.l./7f415b96e9af00b4.jpg,Ophrys fusca s.l.
arten-512/Ophrys fusca s.l./a23fdc23b7c6f945.jpg,Ophrys fusca s.l.
arten-512/Ophrys fusca s.l./db77b3dfe21cca2e.jpg,Ophrys fusca s.l.
arten-512/Ophrys holoserica s.l./289ff53d48a2637a.jpg,Ophrys holoserica s.l.
arten-512/Ophrys holoserica s.l./62260469e6a24763.jpg,Ophrys holoserica s.l.
arten-512/Ophrys holoserica s.l./bf17d0b0c11efb4e.jpg,Ophrys holoserica s.l.
arten-512/Ophrys holoserica s.l./13df5a4e7d57d201.jpg,Ophrys holoserica s.l.
arten-512/Ophrys holoserica s.l./345951b75e835d1a.jpg,Ophrys holoserica s.l.
arten-512/Ophrys holoserica s.l./767c4ffdc0861586.jpg,Ophrys holoserica s.l.
arten-512/Ophrys holoserica s.l./63cfa995174c39cf.jpg,Ophrys holoserica s.l.
arten-512/Ophrys holoserica s.l./29eaea8530868c22.jpg,Ophrys holoserica s.l.
arten-512/Ophrys holoserica s.l./b4413d47f2406889.jpg,Ophrys holoserica s.l.
arten-512/Ophrys holoserica s.l./c6ed743940bdde47.jpg,Ophrys holoserica s.l.
arten-512/Ophrys holoserica s.l./14203977c9640847.jpg,Ophrys holoserica s.l.
arten-512/Ophrys holoserica s.l./46cffa18515f37b9.jpg,Ophrys holoserica s.l.
arten-512/Ophrys holoserica s.l./3403bbff5d6f1f8b.jpg,Ophrys holoserica s.l.
arten-512/Ophrys holoserica s.l./4681c882b3c85ed5.jpg,Ophrys holoserica s.l.
arten-512/Ophrys holoserica s.l./d3153f6df943a24b.jpg,Ophrys holoserica s.l.
arten-512/Ophrys holoserica s.l./9a709f60b192b2db.jpg,Ophrys holoserica s.l.
arten-512/Ophrys holoserica s.l./767a4dfce1df0109.jpg,Ophrys holoserica s.l.
arten-512/Ophrys holoserica s.l./2cc34aab4a923a02.jpg,Ophrys holoserica s.l.
arten-512/Ophrys holoserica s.l./6d943701b381f812.jpg,Ophrys holoserica s.l.
arten-512/Ophrys holoserica s.l./a56ba473ace2ecde.jpg,Ophrys holoserica s.l.
arten-512/Ophrys holoserica s.l./07bad4c86eaa6073.jpg,Ophrys holoserica s.l.
arten-512/Ophrys holoserica s.l./80cc25d1e7cf65b4.jpg,Ophrys holoserica s.l.
arten-512/Ophrys holoserica s.l./89416827b135df9a.jpg,Ophrys holoserica s.l.
arten-512/Ophrys holoserica s.l./8fde5847c175a992.jpg,Ophrys holoserica s.l.
arten-512/Ophrys holoserica s.l./8daa90ae6fdba2c1.jpg,Ophrys holoserica s.l.
arten-512/Ophrys holoserica s.l./1a3639ab0297fdc3.jpg,Ophrys holoserica s.l.
arten-512/Ophrys holoserica s.l./46ef62c1defa96c6.jpg,Ophrys holoserica s.l.
arten-512/Ophrys holoserica s.l./ada9b01e022d408f.jpg,Ophrys holoserica s.l.
arten-512/Ophrys holoserica s.l./063fcd7ffee7d57c.jpg,Ophrys holoserica s.l.
arten-512/Ophrys holoserica s.l./65d3d801acf9c2cc.jpg,Ophrys holoserica s.l.
arten-512/Ophrys holoserica s.l./7f3996631fa06741.jpg,Ophrys holoserica s.l.
arten-512/Ophrys holoserica s.l./5f04a906e868a10a.jpg,Ophrys holoserica s.l.
arten-512/Ophrys holoserica s.l./6144065e3513c90f.jpg,Ophrys holoserica s.l.
arten-512/Ophrys holoserica s.l./a8a37288fb3eed6e.jpg,Ophrys holoserica s.l.
arten-512/Ophrys holoserica s.l./7f40e1afaad2881e.jpg,Ophrys holoserica s.l.
arten-512/Ophrys holoserica s.l./58335cadf3fe8f12.jpg,Ophrys holoserica s.l.
arten-512/Ophrys holoserica s.l./b03db52fe2f31d52.jpg,Ophrys holoserica s.l.
arten-512/Ophrys holoserica s.l./2bca520e70cb9f07.jpg,Ophrys holoserica s.l.
arten-512/Ophrys holoserica s.l./05d29ccdf7b6cc2f.jpg,Ophrys holoserica s.l.
arten-512/Ophrys holoserica s.l./367dce0fd5b2df64.jpg,Ophrys holoserica s.l.
arten-512/Ophrys holoserica s.l./d632323757b604af.jpg,Ophrys holoserica s.l.
arten-512/Ophrys holoserica s.l./706a718d4bd6f53f.jpg,Ophrys holoserica s.l.
arten-512/Ophrys holoserica s.l./54a685933fc35e33.jpg,Ophrys holoserica s.l.
arten-512/Ophrys holoserica s.l./140da8d77cb4d58a.jpg,Ophrys holoserica s.l.
arten-512/Ophrys holoserica s.l./5068f135fd648faa.jpg,Ophrys holoserica s.l.
arten-512/Ophrys holoserica s.l./6c95d50cbb1fe458.jpg,Ophrys holoserica s.l.
arten-512/Ophrys holoserica s.l./d18ee830b98bb5b3.jpg,Ophrys holoserica s.l.
arten-512/Ophrys holoserica s.l./29ba3baa00ac4c7e.jpg,Ophrys holoserica s.l.
arten-512/Ophrys holoserica s.l./4fd7d7358e124449.jpg,Ophrys holoserica s.l.
arten-512/Ophrys holoserica s.l./544d461ddcc68be1.jpg,Ophrys holoserica s.l.
arten-512/Ophrys holoserica-3/1ca02e30ed47dff3.jpg,Ophrys holoserica-3
arten-512/Ophrys holoserica-3/e8f0e21374bb6709.jpg,Ophrys holoserica-3
arten-512/Ophrys holoserica-3/83bf96c5738bedac.jpg,Ophrys holoserica-3
arten-512/Ophrys holoserica-3/db9ca89045ce72e8.jpg,Ophrys holoserica-3
arten-512/Ophrys holoserica-3/eca529777d2c410a.jpg,Ophrys holoserica-3
arten-512/Ophrys holoserica-3/0370fde0ff155167.jpg,Ophrys holoserica-3
arten-512/Ophrys holoserica-3/a589113f6a09c571.jpg,Ophrys holoserica-3
arten-512/Ophrys holoserica-3/04af1659b59a360c.jpg,Ophrys holoserica-3
arten-512/Ophrys holoserica-3/c8e9b5feede3cd13.jpg,Ophrys holoserica-3
arten-512/Ophrys holoserica-3/dfd678b79d3fd200.jpg,Ophrys holoserica-3
arten-512/Ophrys holoserica-3/b758394b2071aa05.jpg,Ophrys holoserica-3
arten-512/Ophrys holoserica-3/9e566afc3f0a0f17.jpg,Ophrys holoserica-3
arten-512/Ophrys holoserica-3/09c4f530afa686ec.jpg,Ophrys holoserica-3
arten-512/Ophrys holoserica-3/909952fd3b7cf7d7.jpg,Ophrys holoserica-3
arten-512/Ophrys holoserica-3/af8e42b7bfaf9ae1.jpg,Ophrys holoserica-3
arten-512/Ophrys holoserica-3/d90f6a68aee51c89.jpg,Ophrys holoserica-3
arten-512/Ophrys holoserica-3/8cf16f9678db8b63.jpg,Ophrys holoserica-3
arten-512/Ophrys holoserica-3/a1f9ed9e549fa72b.jpg,Ophrys holoserica-3
arten-512/Ophrys holoserica-3/68a8cb49c97ef0b6.jpg,Ophrys holoserica-3
arten-512/Ophrys holoserica-3/1673320501dd4073.jpg,Ophrys holoserica-3
arten-512/Ophrys holoserica-3/fd3bf85057b06078.jpg,Ophrys holoserica-3
arten-512/Ophrys holoserica-3/cdaaaec381a7cfbf.jpg,Ophrys holoserica-3
arten-512/Ophrys holoserica-3/17c683e42b37fed2.jpg,Ophrys holoserica-3
arten-512/Ophrys holoserica-3/30a600a55f2fe232.jpg,Ophrys holoserica-3
arten-512/Ophrys holoserica-3/adcfa66358928300.jpg,Ophrys holoserica-3
arten-512/Ophrys holoserica-3/0071c74b73576c0e.jpg,Ophrys holoserica-3
arten-512/Ophrys holoserica-3/fcdb0bab63c17037.jpg,Ophrys holoserica-3
arten-512/Ophrys holoserica-3/4e7c929950bd7de2.jpg,Ophrys holoserica-3
arten-512/Ophrys holoserica-3/1a2e95b4ba39d51d.jpg,Ophrys holoserica-3
arten-512/Ophrys holoserica-3/0016eff95b854a81.jpg,Ophrys holoserica-3
arten-512/Ophrys holoserica-3/b146f16c4d4b0ed4.jpg,Ophrys holoserica-3
arten-512/Ophrys holoserica-3/694c9cf3060225d6.jpg,Ophrys holoserica-3
arten-512/Ophrys holoserica-3/7d60b47ff73d130b.jpg,Ophrys holoserica-3
arten-512/Ophrys holoserica-3/fe6a6ce4e5f61367.jpg,Ophrys holoserica-3
arten-512/Ophrys holoserica-3/691473c21178ac7d.jpg,Ophrys holoserica-3
arten-512/Ophrys holoserica-3/437f29f5077e6d62.jpg,Ophrys holoserica-3
arten-512/Ophrys holoserica-3/4c9b1c2b047b6a0e.jpg,Ophrys holoserica-3
arten-512/Ophrys holoserica-3/993ffc263cabd56b.jpg,Ophrys holoserica-3
arten-512/Ophrys holoserica-3/daf99605e235fe0f.jpg,Ophrys holoserica-3
arten-512/Ophrys holoserica-3/e23e17e1c93a9d90.jpg,Ophrys holoserica-3
arten-512/Ophrys holoserica-3/f7be7a107996607b.jpg,Ophrys holoserica-3
arten-512/Ophrys holoserica-3/489934541c4f2b66.jpg,Ophrys holoserica-3
arten-512/Ophrys holoserica-3/351e8bed55b7adf2.jpg,Ophrys holoserica-3
arten-512/Ophrys holoserica-3/5cee46b52d7eb277.jpg,Ophrys holoserica-3
arten-512/Ophrys holoserica-3/7dc4bbb64bddc3d9.jpg,Ophrys holoserica-3
arten-512/Ophrys holoserica-3/fe9c6070d98caf64.jpg,Ophrys holoserica-3
arten-512/Ophrys holoserica-3/623498068ceec815.jpg,Ophrys holoserica-3
arten-512/Ophrys holoserica-3/e83cce2b92017c57.jpg,Ophrys holoserica-3
arten-512/Ophrys holoserica-3/a726a6442fb00f6e.jpg,Ophrys holoserica-3
arten-512/Ophrys holoserica-3/985031464b5beffe.jpg,Ophrys holoserica-3
arten-512/Ophrys incubacea/7effc3b78a789c60.jpg,Ophrys incubacea
arten-512/Ophrys incubacea/7bc16ef0885ede8a.jpg,Ophrys incubacea
arten-512/Ophrys incubacea/a4e26711177c6be0.jpg,Ophrys incubacea
arten-512/Ophrys incubacea/f069f1a25ee85475.jpg,Ophrys incubacea
arten-512/Ophrys incubacea/ca0e041db5a80779.jpg,Ophrys incubacea
arten-512/Ophrys incubacea/a4f1c8eb843df91f.jpg,Ophrys incubacea
arten-512/Ophrys incubacea/b288c8c06ad01dd0.jpg,Ophrys incubacea
arten-512/Ophrys incubacea/685225504980781f.jpg,Ophrys incubacea
arten-512/Ophrys incubacea/525c57e260eed1a4.jpg,Ophrys incubacea
arten-512/Ophrys incubacea/a75b6bfb1eec90b2.jpg,Ophrys incubacea
arten-512/Ophrys incubacea/830acb16c409e5a2.jpg,Ophrys incubacea
arten-512/Ophrys incubacea/57ac1dee05e18678.jpg,Ophrys incubacea
arten-512/Ophrys incubacea/20819dfdce44ae41.jpg,Ophrys incubacea
arten-512/Ophrys incubacea/3883d5268d93db58.jpg,Ophrys incubacea
arten-512/Ophrys incubacea/7275eb6737b5e392.jpg,Ophrys incubacea
arten-512/Ophrys incubacea/aa200456e4835234.jpg,Ophrys incubacea
arten-512/Ophrys incubacea/bcf249bcc65bbab4.jpg,Ophrys incubacea
arten-512/Ophrys incubacea/1b8b9da82050ebe8.jpg,Ophrys incubacea
arten-512/Ophrys incubacea/5db1e002da9a6cf0.jpg,Ophrys incubacea
arten-512/Ophrys incubacea/a65e3a1e0e1e1e3a.jpg,Ophrys incubacea
arten-512/Ophrys incubacea/131954c81c801d06.jpg,Ophrys incubacea
arten-512/Ophrys incubacea/d6addf9e53212c60.jpg,Ophrys incubacea
arten-512/Ophrys incubacea/7d896337393b805b.jpg,Ophrys incubacea
arten-512/Ophrys incubacea/1203848769da1ea6.jpg,Ophrys incubacea
arten-512/Ophrys incubacea/b10055d4ac04bcb6.jpg,Ophrys incubacea
arten-512/Ophrys incubacea/b49da77fe1b9c278.jpg,Ophrys incubacea
arten-512/Ophrys incubacea/092c59dc7f782699.jpg,Ophrys incubacea
arten-512/Ophrys incubacea/29774a6b7acd182f.jpg,Ophrys incubacea
arten-512/Ophrys incubacea/f3c905586222a279.jpg,Ophrys incubacea
arten-512/Ophrys incubacea/37263b69ccec1dcf.jpg,Ophrys incubacea
arten-512/Ophrys incubacea/45f597475f001269.jpg,Ophrys incubacea
arten-512/Ophrys incubacea/8119b86d7e59989d.jpg,Ophrys incubacea
arten-512/Ophrys incubacea/78ceb366ad823b60.jpg,Ophrys incubacea
arten-512/Ophrys incubacea/429ee11745d34ec0.jpg,Ophrys incubacea
arten-512/Ophrys incubacea/02b1928b3da1f370.jpg,Ophrys incubacea
arten-512/Ophrys incubacea/c6c84832c80e9c89.jpg,Ophrys incubacea
arten-512/Ophrys incubacea/f333663e10842d10.jpg,Ophrys incubacea
arten-512/Ophrys incubacea/9d2f6fb717faede5.jpg,Ophrys incubacea
arten-512/Ophrys incubacea/c8ea7ff4ca22503e.jpg,Ophrys incubacea
arten-512/Ophrys incubacea/f11c494c8ce17a20.jpg,Ophrys incubacea
arten-512/Ophrys incubacea/3729a25c9b21835c.jpg,Ophrys incubacea
arten-512/Ophrys incubacea/42577b31710ef097.jpg,Ophrys incubacea
arten-512/Ophrys incubacea/aa2b52d23a559563.jpg,Ophrys incubacea
arten-512/Ophrys incubacea/920b4ec4e205b526.jpg,Ophrys incubacea
arten-512/Ophrys incubacea/ec0dfdeb2e116f65.jpg,Ophrys incubacea
arten-512/Ophrys incubacea/e37b9a5be091542d.jpg,Ophrys incubacea
arten-512/Ophrys incubacea/c4e3cac564dc076d.jpg,Ophrys incubacea
arten-512/Ophrys incubacea/faa6c077ce71fccb.jpg,Ophrys incubacea
arten-512/Ophrys incubacea/92c7ae62fa892ae3.jpg,Ophrys incubacea
arten-512/Ophrys incubacea/7ed19284160ad10d.jpg,Ophrys incubacea
arten-512/Ophrys istriensis/4f4acd29098d5941.jpg,Ophrys istriensis
arten-512/Ophrys istriensis/c206804250157182.jpg,Ophrys istriensis
arten-512/Ophrys istriensis/231b6a0eeff05048.jpg,Ophrys istriensis
arten-512/Ophrys istriensis/e18c42295dda0362.jpg,Ophrys istriensis
arten-512/Ophrys istriensis/3252af40b6b41802.jpg,Ophrys istriensis
arten-512/Ophrys istriensis/45e10f0d207e92b7.jpg,Ophrys istriensis
arten-512/Ophrys istriensis/f59ff2fc5dd1d448.jpg,Ophrys istriensis
arten-512/Ophrys istriensis/796a30d7b957039c.jpg,Ophrys istriensis
arten-512/Ophrys istriensis/07dc265c61b5917d.jpg,Ophrys istriensis
arten-512/Ophrys istriensis/3a5a2b370d2efc3e.jpg,Ophrys istriensis
arten-512/Ophrys istriensis/4340d9cd5f35e577.jpg,Ophrys istriensis
arten-512/Ophrys istriensis/84da5e822efef0c8.jpg,Ophrys istriensis
arten-512/Ophrys istriensis/31f9297c2967f661.jpg,Ophrys istriensis
arten-512/Ophrys istriensis/c8f01a0d727acab2.jpg,Ophrys istriensis
arten-512/Ophrys istriensis/d5fe94ed897df440.jpg,Ophrys istriensis
arten-512/Ophrys istriensis/4df82046564b024d.jpg,Ophrys istriensis
arten-512/Ophrys istriensis/60abc7623d2dc1fc.jpg,Ophrys istriensis
arten-512/Ophrys istriensis/22f4a614a84be5d4.jpg,Ophrys istriensis
arten-512/Ophrys istriensis/6e91e927900292ba.jpg,Ophrys istriensis
arten-512/Ophrys istriensis/5f8b98e28e8a7d63.jpg,Ophrys istriensis
arten-512/Ophrys istriensis/a4c117a6d5e31c22.jpg,Ophrys istriensis
arten-512/Ophrys istriensis/21ecbe201d456074.jpg,Ophrys istriensis
arten-512/Ophrys istriensis/303175f80b129e4a.jpg,Ophrys istriensis
arten-512/Ophrys istriensis/288f14a01cc5f92a.jpg,Ophrys istriensis
arten-512/Ophrys istriensis/e2e5afd6804841df.jpg,Ophrys istriensis
arten-512/Ophrys istriensis/701447d0ee6e2c7f.jpg,Ophrys istriensis
arten-512/Ophrys istriensis/5b39cd6c8ca3dda3.jpg,Ophrys istriensis
arten-512/Ophrys istriensis/55007226f88a4410.jpg,Ophrys istriensis
arten-512/Ophrys istriensis/eb874ee8cdcd5f60.jpg,Ophrys istriensis
arten-512/Ophrys istriensis/59bf48c61bec3edf.jpg,Ophrys istriensis
arten-512/Ophrys istriensis/cfc718d6f45868fa.jpg,Ophrys istriensis
arten-512/Ophrys istriensis/112d9472906d54ec.jpg,Ophrys istriensis
arten-512/Ophrys istriensis/110d3dd3aa4f8e4b.jpg,Ophrys istriensis
arten-512/Ophrys istriensis/e8cac84928ff9c09.jpg,Ophrys istriensis
arten-512/Ophrys istriensis/fa2147ec22421c34.jpg,Ophrys istriensis
arten-512/Ophrys istriensis/49c09a6ae927396e.jpg,Ophrys istriensis
arten-512/Ophrys istriensis/8257b3ee3883f2ae.jpg,Ophrys istriensis
arten-512/Ophrys istriensis/a5916eb9d74bbdcb.jpg,Ophrys istriensis
arten-512/Ophrys istriensis/24984d6dcfbeb5be.jpg,Ophrys istriensis
arten-512/Ophrys istriensis/ed0cb230d7e365be.jpg,Ophrys istriensis
arten-512/Ophrys istriensis/cec9d4ccd34339cb.jpg,Ophrys istriensis
arten-512/Ophrys istriensis/2d504e17fbdc696a.jpg,Ophrys istriensis
arten-512/Ophrys istriensis/ee8d857493127f77.jpg,Ophrys istriensis
arten-512/Ophrys istriensis/1d3a96d099c7b8ab.jpg,Ophrys istriensis
arten-512/Ophrys istriensis/dd00db8cdbceee55.jpg,Ophrys istriensis
arten-512/Ophrys istriensis/a101d901293ecb91.jpg,Ophrys istriensis
arten-512/Ophrys istriensis/c1628413a764fa17.jpg,Ophrys istriensis
arten-512/Ophrys istriensis/be00fa2d17d1dbfe.jpg,Ophrys istriensis
arten-512/Ophrys istriensis/5acc1109d73afd6a.jpg,Ophrys istriensis
arten-512/Ophrys istriensis/8e7240a2e1840312.jpg,Ophrys istriensis
arten-512/Ophrys passionis garganica/0cbb1f5f52cf9497.jpg,Ophrys passionis garganica
arten-512/Ophrys passionis garganica/43909e40aac5698f.jpg,Ophrys passionis garganica
arten-512/Ophrys passionis garganica/e2488226addbb9b6.jpg,Ophrys passionis garganica
arten-512/Ophrys passionis garganica/4a685a49ab75fc4c.jpg,Ophrys passionis garganica
arten-512/Ophrys passionis garganica/e5cad63a8fe076a1.jpg,Ophrys passionis garganica
arten-512/Ophrys passionis garganica/e34ddf2c60ca409e.jpg,Ophrys passionis garganica
arten-512/Ophrys passionis garganica/f6181e773dee9e0b.jpg,Ophrys passionis garganica
arten-512/Ophrys passionis garganica/89163a132a639539.jpg,Ophrys passionis garganica
arten-512/Ophrys passionis garganica/301ed2c707109b84.jpg,Ophrys passionis garganica
arten-512/Ophrys passionis garganica/b465b8ebcbca818a.jpg,Ophrys passionis garganica
arten-512/Ophrys passionis garganica/5fb669c37cde1b41.jpg,Ophrys passionis garganica
arten-512/Ophrys passionis garganica/0a9cf9a7b1dd51ef.jpg,Ophrys passionis garganica
arten-512/Ophrys passionis garganica/37cebbda8cc1f9e0.jpg,Ophrys passionis garganica
arten-512/Ophrys passionis garganica/a8ac5a6e8478573e.jpg,Ophrys passionis garganica
arten-512/Ophrys passionis garganica/2bcc14e18fa2cc23.jpg,Ophrys passionis garganica
arten-512/Ophrys passionis garganica/8305b054cf2603d8.jpg,Ophrys passionis garganica
arten-512/Ophrys passionis garganica/9c5f8aa93507196f.jpg,Ophrys passionis garganica
arten-512/Ophrys passionis garganica/124bf22a3be8404b.jpg,Ophrys passionis garganica
arten-512/Ophrys passionis garganica/43cc32372d653a1c.jpg,Ophrys passionis garganica
arten-512/Ophrys passionis garganica/0bfeb30698f49e75.jpg,Ophrys passionis garganica
arten-512/Ophrys passionis garganica/128efe5f6a1e2c7e.jpg,Ophrys passionis garganica
arten-512/Ophrys passionis garganica/e66c7dda71195338.jpg,Ophrys passionis garganica
arten-512/Ophrys passionis garganica/f202e69488bb1071.jpg,Ophrys passionis garganica
arten-512/Ophrys passionis garganica/bb0ff6754aeb3311.jpg,Ophrys passionis garganica
arten-512/Ophrys passionis garganica/58c92daef679273f.jpg,Ophrys passionis garganica
arten-512/Ophrys passionis garganica/d8cd98c8581b462c.jpg,Ophrys passionis garganica
arten-512/Ophrys passionis garganica/2040d46b46143070.jpg,Ophrys passionis garganica
arten-512/Ophrys passionis garganica/ce403c228940a9c8.jpg,Ophrys passionis garganica
arten-512/Ophrys passionis garganica/a559c08526e89b64.jpg,Ophrys passionis garganica
arten-512/Ophrys passionis garganica/9642ee13c8e20890.jpg,Ophrys passionis garganica
arten-512/Ophrys passionis garganica/857007d6fab6ae74.jpg,Ophrys passionis garganica
arten-512/Ophrys passionis garganica/bba2c3126d6af96e.jpg,Ophrys passionis garganica
arten-512/Ophrys passionis garganica/6682a0705982c913.jpg,Ophrys passionis garganica
arten-512/Ophrys passionis garganica/17560cfca9dc3549.jpg,Ophrys passionis garganica
arten-512/Ophrys passionis garganica/70c4c6bbf52453cf.jpg,Ophrys passionis garganica
arten-512/Ophrys passionis garganica/e143ca1630c4f2f4.jpg,Ophrys passionis garganica
arten-512/Ophrys passionis garganica/64735f962e705bf8.jpg,Ophrys passionis garganica
arten-512/Ophrys passionis garganica/031754ae97d2c9eb.jpg,Ophrys passionis garganica
arten-512/Ophrys passionis garganica/e5562ad4debbbbf8.jpg,Ophrys passionis garganica
arten-512/Ophrys passionis garganica/e1cfcf5149ededd9.jpg,Ophrys passionis garganica
arten-512/Ophrys passionis garganica/676673cc45977a30.jpg,Ophrys passionis garganica
arten-512/Ophrys passionis garganica/abaa79539f204de1.jpg,Ophrys passionis garganica
arten-512/Ophrys passionis garganica/4fde516452ebe8c4.jpg,Ophrys passionis garganica
arten-512/Ophrys passionis garganica/2c382eec5013f6ad.jpg,Ophrys passionis garganica
arten-512/Ophrys passionis garganica/fe80e363c8bc7dfe.jpg,Ophrys passionis garganica
arten-512/Ophrys passionis garganica/b5a5a2b63d8f4ede.jpg,Ophrys passionis garganica
arten-512/Ophrys passionis garganica/bd6f1d107d23a14b.jpg,Ophrys passionis garganica
arten-512/Ophrys passionis garganica/48c8d746630379c8.jpg,Ophrys passionis garganica
arten-512/Ophrys passionis garganica/cb03e8a6dbc2ea9d.jpg,Ophrys passionis garganica
arten-512/Ophrys passionis garganica/4a995e7feafdb719.jpg,Ophrys passionis garganica
arten-512/Ophrys rhodostephane/1a823519f72adfb4.jpg,Ophrys rhodostephane
arten-512/Ophrys rhodostephane/2779c89c0a850e5a.jpg,Ophrys rhodostephane
arten-512/Ophrys rhodostephane/27279a5b5d266288.jpg,Ophrys rhodostephane
arten-512/Ophrys rhodostephane/d4dd65c555f76c7c.jpg,Ophrys rhodostephane
arten-512/Ophrys rhodostephane/37f971e8c1950d09.jpg,Ophrys rhodostephane
arten-512/Ophrys rhodostephane/27b7455101abeaf8.jpg,Ophrys rhodostephane
arten-512/Ophrys rhodostephane/954175d7e71c6bb1.jpg,Ophrys rhodostephane
arten-512/Ophrys rhodostephane/87c9cfac447a02a1.jpg,Ophrys rhodostephane
arten-512/Ophrys rhodostephane/679f7004c7904118.jpg,Ophrys rhodostephane
arten-512/Ophrys rhodostephane/1d6ce1b232620c14.jpg,Ophrys rhodostephane
arten-512/Ophrys rhodostephane/44ea953d587193ee.jpg,Ophrys rhodostephane
arten-512/Ophrys rhodostephane/ee81b2a25669c6d2.jpg,Ophrys rhodostephane
arten-512/Ophrys rhodostephane/4e7afd346bbd4d27.jpg,Ophrys rhodostephane
arten-512/Ophrys rhodostephane/e414d20758c13ad0.jpg,Ophrys rhodostephane
arten-512/Ophrys rhodostephane/fa60e4a9bb992aa6.jpg,Ophrys rhodostephane
arten-512/Ophrys rhodostephane/326adf0950a7c3c9.jpg,Ophrys rhodostephane
arten-512/Ophrys rhodostephane/32d5a8449555db5e.jpg,Ophrys rhodostephane
arten-512/Ophrys rhodostephane/c0ccef3a5c275b4d.jpg,Ophrys rhodostephane
arten-512/Ophrys rhodostephane/90a99f2cc18bfb4f.jpg,Ophrys rhodostephane
arten-512/Ophrys rhodostephane/d6096d8f8056ac7a.jpg,Ophrys rhodostephane
arten-512/Ophrys rhodostephane/d9a2a17ad73bd58b.jpg,Ophrys rhodostephane
arten-512/Ophrys rhodostephane/2b2d7139578b7cbd.jpg,Ophrys rhodostephane
arten-512/Ophrys rhodostephane/7efa2d1cc8555ebc.jpg,Ophrys rhodostephane
arten-512/Ophrys rhodostephane/d58079170c51d0ca.jpg,Ophrys rhodostephane
arten-512/Ophrys rhodostephane/8595086f605b7c8e.jpg,Ophrys rhodostephane
arten-512/Ophrys rhodostephane/474998f07417992c.jpg,Ophrys rhodostephane
arten-512/Ophrys rhodostephane/bc34dd0a90979e7b.jpg,Ophrys rhodostephane
arten-512/Ophrys rhodostephane/f2c317e370554626.jpg,Ophrys rhodostephane
arten-512/Ophrys rhodostephane/a246de37503fc318.jpg,Ophrys rhodostephane
arten-512/Ophrys rhodostephane/fb85673bf66a5ae2.jpg,Ophrys rhodostephane
arten-512/Ophrys rhodostephane/c8df07708d353535.jpg,Ophrys rhodostephane
arten-512/Ophrys rhodostephane/c836e4e4e877b00a.jpg,Ophrys rhodostephane
arten-512/Ophrys rhodostephane/2b895d68cd18e678.jpg,Ophrys rhodostephane
arten-512/Ophrys rhodostephane/a10c1e6efcd26e09.jpg,Ophrys rhodostephane
arten-512/Ophrys rhodostephane/4f8d9d463a7fe36d.jpg,Ophrys rhodostephane
arten-512/Ophrys rhodostephane/850f3a94df84d485.jpg,Ophrys rhodostephane
arten-512/Ophrys rhodostephane/6cf91dd48ec6c3c6.jpg,Ophrys rhodostephane
arten-512/Ophrys rhodostephane/40832647a2f101c3.jpg,Ophrys rhodostephane
arten-512/Ophrys rhodostephane/7d0e3df85e37be39.jpg,Ophrys rhodostephane
arten-512/Ophrys rhodostephane/1008154a56d5b2a9.jpg,Ophrys rhodostephane
arten-512/Ophrys rhodostephane/d928122bbaf44d79.jpg,Ophrys rhodostephane
arten-512/Ophrys rhodostephane/9c912d973737da45.jpg,Ophrys rhodostephane
arten-512/Ophrys rhodostephane/c3f8713b7575feda.jpg,Ophrys rhodostephane
arten-512/Ophrys rhodostephane/08a3a60b24fd2b7e.jpg,Ophrys rhodostephane
arten-512/Ophrys rhodostephane/4794bb10cf7d5f37.jpg,Ophrys rhodostephane
arten-512/Ophrys rhodostephane/58f3e2501af007b6.jpg,Ophrys rhodostephane
arten-512/Ophrys rhodostephane/4332d9ebd13ec088.jpg,Ophrys rhodostephane
arten-512/Ophrys rhodostephane/8b14478d68126c70.jpg,Ophrys rhodostephane
arten-512/Ophrys rhodostephane/976399aa67a25f39.jpg,Ophrys rhodostephane
arten-512/Ophrys rhodostephane/5d73ab998fb15bba.jpg,Ophrys rhodostephane
arten-512/Ophrys sphegodes s.l./96b1ce56e26a346e.jpg,Ophrys sphegodes s.l.
arten-512/Ophrys sphegodes s.l./91331144edc675a0.jpg,Ophrys sphegodes s.l.
arten-512/Ophrys sphegodes s.l./d6567a75baea0d5a.jpg,Ophrys sphegodes s.l.
arten-512/Ophrys sphegodes s.l./adbbc42368a1c500.jpg,Ophrys sphegodes s.l.
arten-512/Ophrys sphegodes s.l./f2844e289bd202c6.jpg,Ophrys sphegodes s.l.
arten-512/Ophrys sphegodes s.l./bb230212ff957cdc.jpg,Ophrys sphegodes s.l.
arten-512/Ophrys sphegodes s.l./8eaff4a157e66b95.jpg,Ophrys sphegodes s.l.
arten-512/Ophrys sphegodes s.l./42b35ebdad674927.jpg,Ophrys sphegodes s.l.
arten-512/Ophrys sphegodes s.l./80cea49e8e5d829e.jpg,Ophrys sphegodes s.l.
arten-512/Ophrys sphegodes s.l./3b097ee374940634.jpg,Ophrys sphegodes s.l.
arten-512/Ophrys sphegodes s.l./9919c111e7f40774.jpg,Ophrys sphegodes s.l.
arten-512/Ophrys sphegodes s.l./d67e202a97e73fa3.jpg,Ophrys sphegodes s.l.
arten-512/Ophrys sphegodes s.l./1ed7e610dda600f6.jpg,Ophrys sphegodes s.l.
arten-512/Ophrys sphegodes s.l./e7158f080fb1f824.jpg,Ophrys sphegodes s.l.
arten-512/Ophrys sphegodes s.l./2bba41b3c1bba956.jpg,Ophrys sphegodes s.l.
arten-512/Ophrys sphegodes s.l./1c3b2d937edeb3f1.jpg,Ophrys sphegodes s.l.
arten-512/Ophrys sphegodes s.l./7a76b0d9ed1818a3.jpg,Ophrys sphegodes s.l.
arten-512/Ophrys sphegodes s.l./5e253c1a9052f846.jpg,Ophrys sphegodes s.l.
arten-512/Ophrys sphegodes s.l./b20578e924bfff0d.jpg,Ophrys sphegodes s.l.
arten-512/Ophrys sphegodes s.l./a3d9856f26e4e079.jpg,Ophrys sphegodes s.l.
arten-512/Ophrys sphegodes s.l./466a6afefcc99c9a.jpg,Ophrys sphegodes s.l.
arten-512/Ophrys sphegodes s.l./d33b7926752c3a0a.jpg,Ophrys sphegodes s.l.
arten-512/Ophrys sphegodes s.l./46443ab1f6cc45e8.jpg,Ophrys sphegodes s.l.
arten-512/Ophrys sphegodes s.l./92f3cb2188c6ce83.jpg,Ophrys sphegodes s.l.
arten-512/Ophrys sphegodes s.l./1bbae0f1792b1c88.jpg,Ophrys sphegodes s.l.
arten-512/Ophrys sphegodes s.l./ff4ff2b59e3f5da5.jpg,Ophrys sphegodes s.l.
arten-512/Ophrys sphegodes s.l./cc9cb957ab5b8375.jpg,Ophrys sphegodes s.l.
arten-512/Ophrys sphegodes s.l./e87222c46b843823.jpg,Ophrys sphegodes s.l.
arten-512/Ophrys sphegodes s.l./23fb0522d05c54a1.jpg,Ophrys sphegodes s.l.
arten-512/Ophrys sphegodes s.l./4d457276a52e3c37.jpg,Ophrys sphegodes s.l.
arten-512/Ophrys sphegodes s.l./6cf15f5cbaa9ea96.jpg,Ophrys sphegodes s.l.
arten-512/Ophrys sphegodes s.l./d5c973a040a3670b.jpg,Ophrys sphegodes s.l.
arten-512/Ophrys sphegodes s.l./0e3572cefdfa59c2.jpg,Ophrys sphegodes s.l.
arten-512/Ophrys sphegodes s.l./2c0e6aa82de4e491.jpg,Ophrys sphegodes s.l.
arten-512/Ophrys sphegodes s.l./3c74db63bc56739e.jpg,Ophrys sphegodes s.l.
arten-512/Ophrys sphegodes s.l./f703179b7018404b.jpg,Ophrys sphegodes s.l.
arten-512/Ophrys sphegodes s.l./e544bed3d7e48168.jpg,Ophrys sphegodes s.l.
arten-512/Ophrys sphegodes s.l./1c880b8057a49143.jpg,Ophrys sphegodes s.l.
arten-512/Ophrys sphegodes s.l./ba42389418f01bc1.jpg,Ophrys sphegodes s.l.
arten-512/Ophrys sphegodes s.l./c93fb7b2ebcc7888.jpg,Ophrys sphegodes s.l.
arten-512/Ophrys sphegodes s.l./3d71f7900bcfdefd.jpg,Ophrys sphegodes s.l.
arten-512/Ophrys sphegodes s.l./ce0641bb47b734d1.jpg,Ophrys sphegodes s.l.
arten-512/Ophrys sphegodes s.l./57721464d55c99fb.jpg,Ophrys sphegodes s.l.
arten-512/Ophrys sphegodes s.l./9d622527a1829353.jpg,Ophrys sphegodes s.l.
arten-512/Ophrys sphegodes s.l./8f14e68d95dfb066.jpg,Ophrys sphegodes s.l.
arten-512/Ophrys sphegodes s.l./79812d076a7f78d3.jpg,Ophrys sphegodes s.l.
arten-512/Ophrys sphegodes s.l./b2c1d0127592d05b.jpg,Ophrys sphegodes s.l.
arten-512/Ophrys sphegodes s.l./939fbf6178e3c1a5.jpg,Ophrys sphegodes s.l.
arten-512/Ophrys sphegodes s.l./9e947516fe80bc25.jpg,Ophrys sphegodes s.l.
arten-512/Ophrys sphegodes s.l./21255a3cc8285809.jpg,Ophrys sphegodes s.l.
arten-512/Ophrys tommasinii/4643f404574901a1.jpg,Ophrys tommasinii
arten-512/Ophrys tommasinii/b51e30f7dfa4245e.jpg,Ophrys tommasinii
arten-512/Ophrys tommasinii/5405d31ba542de56.jpg,Ophrys tommasinii
arten-512/Ophrys tommasinii/0e95f12acb722a79.jpg,Ophrys tommasinii
arten-512/Ophrys tommasinii/eb9958578f46459b.jpg,Ophrys tommasinii
arten-512/Ophrys tommasinii/21e7fd734d7df335.jpg,Ophrys tommasinii
arten-512/Ophrys tommasinii/9a7f43c8582b38bd.jpg,Ophrys tommasinii
arten-512/Ophrys tommasinii/a8f92aeaf004ed79.jpg,Ophrys tommasinii
arten-512/Ophrys tommasinii/0e06046115a34d6d.jpg,Ophrys tommasinii
arten-512/Ophrys tommasinii/82b48aa62e508d89.jpg,Ophrys tommasinii
arten-512/Ophrys tommasinii/1db2c97f4d5fccc0.jpg,Ophrys tommasinii
arten-512/Ophrys tommasinii/e42d7a52579ed010.jpg,Ophrys tommasinii
arten-512/Ophrys tommasinii/31073c472080f65d.jpg,Ophrys tommasinii
arten-512/Ophrys tommasinii/8b29059dfcca38f5.jpg,Ophrys tommasinii
arten-512/Ophrys tommasinii/a21bf6e8cd339da6.jpg,Ophrys tommasinii
arten-512/Ophrys tommasinii/d9c45d7ad7866018.jpg,Ophrys tommasinii
arten-512/Ophrys tommasinii/656b7528872a7e64.jpg,Ophrys tommasinii
arten-512/Ophrys tommasinii/81a25903962ab9f8.jpg,Ophrys tommasinii
arten-512/Ophrys tommasinii/b063efa67fe56672.jpg,Ophrys tommasinii
arten-512/Ophrys tommasinii/eec86edbcec02934.jpg,Ophrys tommasinii
arten-512/Ophrys tommasinii/1bc4110a9215e6f5.jpg,Ophrys tommasinii
arten-512/Ophrys tommasinii/fe171befc2b4a1f8.jpg,Ophrys tommasinii
arten-512/Ophrys tommasinii/0e413480bcd338d6.jpg,Ophrys tommasinii
arten-512/Ophrys tommasinii/a396d467780724da.jpg,Ophrys tommasinii
arten-512/Ophrys tommasinii/ba41e9226d07c084.jpg,Ophrys tommasinii
arten-512/Ophrys tommasinii/7e4908ab7aa9c0dd.jpg,Ophrys tommasinii
arten-512/Ophrys tommasinii/c3ac02411c2807a5.jpg,Ophrys tommasinii
arten-512/Ophrys tommasinii/d140d4babab04e36.jpg,Ophrys tommasinii
arten-512/Ophrys tommasinii/f16182d8191595c2.jpg,Ophrys tommasinii
arten-512/Ophrys tommasinii/7ff292d1cb2ee667.jpg,Ophrys tommasinii
arten-512/Ophrys tommasinii/49e7e9c669819cbe.jpg,Ophrys tommasinii
arten-512/Ophrys tommasinii/2540614bb415112d.jpg,Ophrys tommasinii
arten-512/Ophrys tommasinii/81a2bc1cab4dfde9.jpg,Ophrys tommasinii
arten-512/Ophrys tommasinii/010d0105e602c3cc.jpg,Ophrys tommasinii
arten-512/Ophrys tommasinii/dcce85d0381cb6a1.jpg,Ophrys tommasinii
arten-512/Ophrys tommasinii/b3aab7db8dc6592a.jpg,Ophrys tommasinii
arten-512/Ophrys tommasinii/e34f22e9f5a97a9e.jpg,Ophrys tommasinii
arten-512/Ophrys tommasinii/e040c9db711603a2.jpg,Ophrys tommasinii
arten-512/Ophrys tommasinii/bc6101e646d95e9a.jpg,Ophrys tommasinii
arten-512/Ophrys tommasinii/76ca746b868d6fc3.jpg,Ophrys tommasinii
arten-512/Ophrys tommasinii/d08c3c4d1c320732.jpg,Ophrys tommasinii
arten-512/Ophrys tommasinii/d37f2cfc49543b36.jpg,Ophrys tommasinii
arten-512/Ophrys tommasinii/0b8d060137f56098.jpg,Ophrys tommasinii
arten-512/Ophrys tommasinii/f80a38fa88ece995.jpg,Ophrys tommasinii
arten-512/Ophrys tommasinii/8afe0c78b651df98.jpg,Ophrys tommasinii
arten-512/Ophrys tommasinii/8df72ae5f71efce4.jpg,Ophrys tommasinii
arten-512/Ophrys tommasinii/054cf36ec52af791.jpg,Ophrys tommasinii
arten-512/Ophrys tommasinii/dd6ca5fb05a321c4.jpg,Ophrys tommasinii
arten-512/Ophrys tommasinii/23b69752c8becf82.jpg,Ophrys tommasinii
arten-512/Ophrys tommasinii/06dd955bed604da8.jpg,Ophrys tommasinii
arten-512/Ophrys zinsmeisteri/c2927d13e6de75a6.jpg,Ophrys zinsmeisteri
arten-512/Ophrys zinsmeisteri/59cffe8eb1a7daba.jpg,Ophrys zinsmeisteri
arten-512/Ophrys zinsmeisteri/35450c9f68dfc930.jpg,Ophrys zinsmeisteri
arten-512/Ophrys zinsmeisteri/814020264b7a9edc.jpg,Ophrys zinsmeisteri
arten-512/Ophrys zinsmeisteri/0fe84d96dd301100.jpg,Ophrys zinsmeisteri
arten-512/Ophrys zinsmeisteri/aa5665547a16a9e8.jpg,Ophrys zinsmeisteri
arten-512/Ophrys zinsmeisteri/16cd847860b04594.jpg,Ophrys zinsmeisteri
arten-512/Ophrys zinsmeisteri/7786e646179141b6.jpg,Ophrys zinsmeisteri
arten-512/Ophrys zinsmeisteri/71e38ff7504a2f2f.jpg,Ophrys zinsmeisteri
arten-512/Ophrys zinsmeisteri/6898bdb2de91195e.jpg,Ophrys zinsmeisteri
arten-512/Ophrys zinsmeisteri/b4d35a2d350ac0db.jpg,Ophrys zinsmeisteri
arten-512/Ophrys zinsmeisteri/5b1beedad02d65b0.jpg,Ophrys zinsmeisteri
arten-512/Ophrys zinsmeisteri/47392349e4684fb3.jpg,Ophrys zinsmeisteri
arten-512/Ophrys zinsmeisteri/590801765eddb25c.jpg,Ophrys zinsmeisteri
arten-512/Ophrys zinsmeisteri/bb2e92a3798f0fe3.jpg,Ophrys zinsmeisteri
arten-512/Ophrys zinsmeisteri/ff2d26d912f613e6.jpg,Ophrys zinsmeisteri
arten-512/Ophrys zinsmeisteri/64b72b5de8fcfd8b.jpg,Ophrys zinsmeisteri
arten-512/Ophrys zinsmeisteri/9b54a24d7ccab2cb.jpg,Ophrys zinsmeisteri
arten-512/Ophrys zinsmeisteri/78e22c2f9b3424ff.jpg,Ophrys zinsmeisteri
arten-512/Ophrys zinsmeisteri/71955cf6a905e8d2.jpg,Ophrys zinsmeisteri
arten-512/Ophrys zinsmeisteri/965ac86cfd6766c2.jpg,Ophrys zinsmeisteri
arten-512/Ophrys zinsmeisteri/25595dbc8429bb2b.jpg,Ophrys zinsmeisteri
arten-512/Ophrys zinsmeisteri/bcff3a90d90de118.jpg,Ophrys zinsmeisteri
arten-512/Ophrys zinsmeisteri/8fa687f81777e095.jpg,Ophrys zinsmeisteri
arten-512/Ophrys zinsmeisteri/2beb42357b2c5f3f.jpg,Ophrys zinsmeisteri
arten-512/Ophrys zinsmeisteri/b1836d08088e0e58.jpg,Ophrys zinsmeisteri
arten-512/Ophrys zinsmeisteri/5a1d94a02c8cf2a4.jpg,Ophrys zinsmeisteri
arten-512/Ophrys zinsmeisteri/b4dd870e3b4dde6a.jpg,Ophrys zinsmeisteri
arten-512/Ophrys zinsmeisteri/780d5de9cfa6c25b.jpg,Ophrys zinsmeisteri
arten-512/Ophrys zinsmeisteri/aa2834ba98032a1e.jpg,Ophrys zinsmeisteri
arten-512/Ophrys zinsmeisteri/c86b6b9d3b013213.jpg,Ophrys zinsmeisteri
arten-512/Ophrys zinsmeisteri/6aaeefede5ba6062.jpg,Ophrys zinsmeisteri
arten-512/Ophrys zinsmeisteri/4fb54668476e9939.jpg,Ophrys zinsmeisteri
arten-512/Ophrys zinsmeisteri/d2e9e35bd08d782a.jpg,Ophrys zinsmeisteri
arten-512/Ophrys zinsmeisteri/ef2b2449b4d42956.jpg,Ophrys zinsmeisteri
arten-512/Ophrys zinsmeisteri/38899eb3c5f76bb7.jpg,Ophrys zinsmeisteri
arten-512/Ophrys zinsmeisteri/750d344dec6b4cde.jpg,Ophrys zinsmeisteri
arten-512/Ophrys zinsmeisteri/e9d448c7b06360dc.jpg,Ophrys zinsmeisteri
arten-512/Ophrys zinsmeisteri/b94d6bc6232813e6.jpg,Ophrys zinsmeisteri
arten-512/Ophrys zinsmeisteri/a19d030788e25410.jpg,Ophrys zinsmeisteri
arten-512/Ophrys zinsmeisteri/b99e85a1b597d5d4.jpg,Ophrys zinsmeisteri
arten-512/Ophrys zinsmeisteri/d7a019d3bc004096.jpg,Ophrys zinsmeisteri
arten-512/Ophrys zinsmeisteri/6d3a79e0f4188ee3.jpg,Ophrys zinsmeisteri
arten-512/Ophrys zinsmeisteri/e4da74ee2e0aa08b.jpg,Ophrys zinsmeisteri
arten-512/Ophrys zinsmeisteri/7be8ef4cd8b78f7c.jpg,Ophrys zinsmeisteri
arten-512/Ophrys zinsmeisteri/426150f5aef0dcc7.jpg,Ophrys zinsmeisteri
arten-512/Ophrys zinsmeisteri/d88f3394c124c291.jpg,Ophrys zinsmeisteri
arten-512/Ophrys zinsmeisteri/5986b362f3d02286.jpg,Ophrys zinsmeisteri
arten-512/Ophrys zinsmeisteri/6cefae5ccdc156a7.jpg,Ophrys zinsmeisteri
arten-512/Ophrys zinsmeisteri/fd494683d0ae485a.jpg,Ophrys zinsmeisteri
